{
  "items": [
    {
      "name": "$fs--xxxl",
      "value": "2.778rem",
      "comment": ""
    },
    {
      "name": "$fs--xxl",
      "value": "2rem",
      "comment": ""
    },
    {
      "name": "$fs--xl",
      "value": "1.11rem",
      "comment": ""
    },
    {
      "name": "$fs--l",
      "value": "1rem",
      "comment": ""
    },
    {
      "name": "$fs--m",
      "value": ".889rem",
      "comment": ""
    },
    {
      "name": "$fs--s",
      "value": ".778rem",
      "comment": ""
    },
    {
      "name": "$fs--xs",
      "value": ".66rem",
      "comment": ""
    },
    {
      "name": "$fs--xxs",
      "value": ".55rem",
      "comment": ""
    }
  ],
  "meta": {
    "description": "To add to these items, use Sass variables that start with <code>$fs--</code> in <code>source/_patterns/00-base/15-typography/fonts/_fonts.scss</code>"
  }
}