<?xml version="1.0" encoding="UTF-8"?>
<svg width="144px" height="84px" viewBox="0 0 144 84" version="1.1" xmlns="http://www.w3.org/2000/svg" xmlns:xlink="http://www.w3.org/1999/xlink">
    <!-- Generator: Sketch 42 (36781) - http://www.bohemiancoding.com/sketch -->
    <title>Untitled</title>
    <desc>Created with Sketch.</desc>
    <defs></defs>
    <g id="Page-1" stroke="none" stroke-width="1" fill="none" fill-rule="evenodd">
        <g id="Layer_1" fill-rule="nonzero">
            <g id="Group">
                <g id="Group-2" transform="translate(0.000000, 69.000000)" fill="#262475">
                    <path d="M10.5,4 C9.5,2.9 8.1,2.3 6.6,2.3 C3.7,2.3 1.4,4.8 1.4,7.6 C1.4,10.4 3.7,12.9 6.6,12.9 C8,12.9 9.5,12.2 10.5,11.2 L10.5,13 C9.4,13.8 8,14.3 6.7,14.3 C3.1,14.3 0,11.3 0,7.7 C0,4 3,1 6.7,1 C8.1,1 9.4,1.4 10.5,2.3 L10.5,4 L10.5,4 Z" id="Shape"></path>
                    <rect id="Rectangle-path" x="12" y="1" width="1.4" height="12.9"></rect>
                    <polygon id="Shape" points="19.6 13.9 18.1 13.9 18.1 2.3 15 2.3 15 1 22.7 1 22.7 2.3 19.6 2.3"></polygon>
                    <polygon id="Shape" points="23 1 24.7 1 28 6.7 31.2 1 32.9 1 28.7 8.3 28.7 13.9 27.2 13.9 27.2 8.3"></polygon>
                    <polygon id="Shape" points="39 10.3 43.1 0 47.3 10.3 50.7 0.7 52.2 0.7 47.3 14.2 43.1 3.9 39 14.2 34 0.7 35.6 0.7"></polygon>
                    <polygon id="Shape" points="53 1 59.7 1 59.7 2.3 54.5 2.3 54.5 6.1 59.6 6.1 59.6 7.5 54.5 7.5 54.5 12.5 59.7 12.5 59.7 13.9 53 13.9"></polygon>
                    <path d="M68.3,3.7 C67.8,2.8 67.2,2.3 66.1,2.3 C65,2.3 64,3.1 64,4.3 C64,5.4 65.1,5.9 66,6.3 L66.9,6.7 C68.6,7.4 70,8.3 70,10.3 C70,12.6 68.2,14.3 66,14.3 C63.9,14.3 62.4,13 62,11 L63.4,10.6 C63.6,11.9 64.6,13 66,13 C67.4,13 68.6,11.9 68.6,10.5 C68.6,9 67.4,8.5 66.2,7.9 L65.4,7.6 C63.9,6.9 62.6,6.1 62.6,4.3 C62.6,2.3 64.3,1 66.2,1 C67.6,1 68.8,1.7 69.5,3 L68.3,3.7 Z" id="Shape"></path>
                    <polygon id="Shape" points="75.5 13.9 74.1 13.9 74.1 2.3 71 2.3 71 1 78.6 1 78.6 2.3 75.5 2.3"></polygon>
                    <polygon id="Shape" points="93.1 6.2 93.1 1 94.5 1 94.5 13.9 93.1 13.9 93.1 7.5 86.5 7.5 86.5 13.9 85 13.9 85 1 86.5 1 86.5 6.2"></polygon>
                    <path d="M110.4,7.7 C110.4,11.4 107.4,14.3 103.7,14.3 C100,14.3 97,11.4 97,7.7 C97,4 100,1 103.7,1 C107.4,1.1 110.4,4.1 110.4,7.7 M98.4,7.7 C98.4,10.6 100.8,13 103.7,13 C106.6,13 109,10.6 109,7.7 C109,4.8 106.7,2.4 103.7,2.4 C100.8,2.4 98.4,4.8 98.4,7.7" id="Shape"></path>
                    <polygon id="Shape" points="113.6 0 118.3 10.8 123 0 125.6 13.6 124.2 13.6 122.5 4.9 122.5 4.9 118.3 14.1 114.2 4.9 114.2 4.9 112.5 13.6 111 13.6"></polygon>
                    <polygon id="Shape" points="127 1 133.6 1 133.6 2.3 128.4 2.3 128.4 6.1 133.5 6.1 133.5 7.5 128.4 7.5 128.4 12.5 133.6 12.5 133.6 13.9 127 13.9"></polygon>
                    <path d="M142.3,3.7 C141.8,2.8 141.2,2.3 140.1,2.3 C139,2.3 138,3.1 138,4.3 C138,5.4 139.1,5.9 140,6.3 L140.9,6.7 C142.6,7.4 144,8.3 144,10.3 C144,12.6 142.2,14.3 140,14.3 C137.9,14.3 136.4,13 136,11 L137.4,10.6 C137.6,11.9 138.6,13 140,13 C141.4,13 142.6,11.9 142.6,10.5 C142.6,9 141.4,8.5 140.2,7.9 L139.4,7.6 C137.9,6.9 136.6,6.1 136.6,4.3 C136.6,2.3 138.3,1 140.2,1 C141.6,1 142.8,1.7 143.5,3 L142.3,3.7 Z" id="Shape"></path>
                </g>
                <g id="Group-3" transform="translate(40.000000, 0.000000)">
                    <polygon id="Shape" fill="#8174AF" points="0 0.2 0 38.2 16.1 56.4 16.1 18.5"></polygon>
                    <polygon id="Shape" fill="#282282" points="16.1 18.5 32.3 0 32.3 38.2 16.1 56.4"></polygon>
                    <polygon id="Shape" fill="#8174AF" points="32.3 0 32.3 38.2 48.4 56.4 48.4 18.5"></polygon>
                    <polygon id="Shape" fill="#282282" points="54.9 27.8 54.9 49.2 48.4 56.4 48.4 18.5 64.6 0 64.6 38.3 60 43.5 60 22.4"></polygon>
                    <polygon id="Shape" fill="#F9B43E" points="60 22.4 54.9 27.8 54.9 43.5 60 43.5 60 43.4"></polygon>
                </g>
            </g>
        </g>
    </g>
</svg>